[
    {
        "Author": "Windmourn",
        "Name": "SkipCutscene",
        "Description": "A plugin which could help you skip cutscene from Duty Roulette: Main Scenario.",
        "InternalName": "SkipCutscene",
        "AssemblyVersion": "1.2.2.1",
        "RepoUrl": "https://github.com/a08381/Dalamud.SkipCutscene",
        "ApplicableVersion": "any",
        "DalamudApiLevel": 8,
        "Punchline": "Help you skip cutscene from Duty Roulette: Main Scenario.",
        "DownloadLinkInstall": "https://gitlab.ruihusoft.cn/dalamud/plugin/DalamudPlugins/-/raw/main/plugins/SkipCutscene/latest.zip?isUpdate=False&isTesting=False",
        "DownloadLinkUpdate": "https://gitlab.ruihusoft.cn/dalamud/plugin/DalamudPlugins/-/raw/main/plugins/SkipCutscene/latest.zip?isUpdate=True&isTesting=False",
        "DownloadLinkTesting": "https://gitlab.ruihusoft.cn/dalamud/plugin/DalamudPlugins/-/raw/main/plugins/SkipCutscene/latest.zip?isUpdate=False&isTesting=True",
        "IsHide": false,
        "IsTestingExclusive": false,
        "DownloadCount": 0,
        "CategoryTags": [],
        "LastUpdated": "1697167335"
    }
]